<svg xmlns="http://www.w3.org/2000/svg" width="307.48" height="60.376" viewBox="0 0 307.48 60.376">
    <defs>
        <style>
            .prefix__cls-2{fill:#fff}
        </style>
    </defs>
    <g id="prefix__Doctor_Logo_white" data-name="Doctor Logo white" opacity="0.1" transform="translate(-2.34 -2.58)">
        <g id="prefix__DOC_OR" data-name="DOC OR" transform="translate(78.057 16.125)">
            <g id="prefix__Group_1806" data-name="Group 1806">
                <path id="prefix__Path_1041" d="M68.371 26.726a17.4 17.4 0 0 1-4.942 13.344q-4.963 4.63-14.414 4.63h-9.9V9.429h11.073A18.533 18.533 0 0 1 63.594 14a16.7 16.7 0 0 1 4.777 12.726zm-7.763.206q0-11.367-10.049-11.367h-3.974v22.96H49.8q10.808.001 10.808-11.593z" class="prefix__cls-2" data-name="Path 1041" transform="translate(-39.11 -8.91)"/>
                <path id="prefix__Path_1042" d="M92.173 27.35q0 8.772-4.345 13.467a16.021 16.021 0 0 1-12.355 4.716 16.062 16.062 0 0 1-12.458-4.716q-4.366-4.695-4.345-13.508t4.365-13.447a16.226 16.226 0 0 1 12.479-4.654 16.082 16.082 0 0 1 12.355 4.674c2.883 3.028 4.304 7.518 4.304 13.468zm-25.74 0a14.7 14.7 0 0 0 2.245 8.916 7.846 7.846 0 0 0 6.713 2.986q8.958 0 8.957-11.9c0-7.949-2.986-11.923-8.916-11.923a7.949 7.949 0 0 0-6.732 3.004 14.785 14.785 0 0 0-2.265 8.916z" class="prefix__cls-2" data-name="Path 1042" transform="translate(-18.392 -9.142)"/>
                <path id="prefix__Path_1043" d="M96.818 15.4a7.6 7.6 0 0 0-6.528 3.171 14.765 14.765 0 0 0-2.306 8.793c0 7.866 2.965 11.8 8.855 11.8a27.964 27.964 0 0 0 9-1.853v6.178a25.122 25.122 0 0 1-9.7 1.812 14.826 14.826 0 0 1-11.779-4.674q-4.118-4.674-4.118-13.405a21.848 21.848 0 0 1 2.058-9.638 14.414 14.414 0 0 1 5.683-6.2 16.968 16.968 0 0 1 8.793-2.224 23.887 23.887 0 0 1 10.3 2.492l-2.409 6.178a38.71 38.71 0 0 0-3.995-1.627 11.676 11.676 0 0 0-3.851-.8z" class="prefix__cls-2" data-name="Path 1043" transform="translate(4.453 -9.158)"/>
            </g>
            <g id="prefix__Group_1807" data-name="Group 1807" transform="translate(157.467 .059)">
                <path id="prefix__Path_1044" d="M149.166 27.335a19.192 19.192 0 0 1-4.345 13.465 18.821 18.821 0 0 1-24.916 0q-4.324-4.695-4.324-13.508t4.345-13.447a19.006 19.006 0 0 1 24.937 0q4.303 4.615 4.303 13.49zm-25.761 0a14.847 14.847 0 0 0 2.244 8.916 7.866 7.866 0 0 0 6.713 2.986q8.958 0 8.958-11.9t-8.92-11.924a7.887 7.887 0 0 0-6.713 3.006 14.641 14.641 0 0 0-2.286 8.916z" class="prefix__cls-2" data-name="Path 1044" transform="translate(-115.58 -9.186)"/>
                <path id="prefix__Path_1045" d="M145.393 31.243v13.529H138V9.436h10.3a17.586 17.586 0 0 1 10.646 2.615A9.349 9.349 0 0 1 162.381 20a9.246 9.246 0 0 1-1.709 5.539 11.325 11.325 0 0 1-4.839 3.81q7.969 11.9 10.3 15.362h-8.237l-8.5-13.467zm0-6.075h2.407a9.328 9.328 0 0 0 5.251-1.194 4.221 4.221 0 0 0 1.689-3.707 3.871 3.871 0 0 0-1.73-3.583 10.564 10.564 0 0 0-5.354-1.05h-2.265z" class="prefix__cls-2" data-name="Path 1045" transform="translate(-91.833 -8.976)"/>
            </g>
        </g>
        <path id="prefix__Path_1044-2" d="M17 11.538V2.58s25.781 0 30.085 26.873H37.86S35.883 12.794 17 11.538z" class="prefix__cls-2" data-name="Path 1044" transform="translate(15.528)"/>
        <path id="prefix__Path_1045-2" d="M32.475 36.712v8.958S6.694 45.67 2.39 18.9h9.2s1.981 16.556 20.885 17.812z" class="prefix__cls-2" data-name="Path 1045" transform="translate(.053 17.286)"/>
        <path id="prefix__Path_1046" d="M2.34 17.7h14.414l3.13 4.242 3.954-5.725v4.695l-3.954 5.748-5.184-6.28H2.34z" class="prefix__cls-2" data-name="Path 1046" transform="translate(0 14.447)"/>
        <path id="prefix__Path_1047" d="M42.8 22.238H28.384l-3.212-4.3-3.872 5.741V19l3.954-5.725 5.189 6.178H42.8z" class="prefix__cls-2" data-name="Path 1047" transform="translate(20.082 11.333)"/>
        <g id="prefix__Group_1831" data-name="Group 1831" transform="translate(25.094 25.334)">
            <g id="prefix__Group_1830" data-name="Group 1830">
                <g id="prefix__Group_1828" data-name="Group 1828" transform="translate(4.583)">
                    <path id="prefix__Rectangle_622" d="M0 0H3.933V15.053H0z" class="prefix__cls-2" data-name="Rectangle 622"/>
                </g>
                <g id="prefix__Group_1829" data-name="Group 1829" transform="translate(0 5.56)">
                    <path id="prefix__Rectangle_623" d="M0 0H13.133V3.933H0z" class="prefix__cls-2" data-name="Rectangle 623"/>
                </g>
            </g>
        </g>
        <g id="prefix__Group_1835" data-name="Group 1835" transform="translate(194.402 15.759)">
            <g id="prefix__Group_1834" data-name="Group 1834">
                <g id="prefix__Group_1832" data-name="Group 1832" transform="translate(12.767)">
                    <path id="prefix__Rectangle_624" d="M0 0H9.06V34.595H0z" class="prefix__cls-2" data-name="Rectangle 624"/>
                </g>
                <g id="prefix__Group_1833" data-name="Group 1833" transform="translate(0 12.767)">
                    <path id="prefix__Rectangle_625" d="M0 0H34.595V9.06H0z" class="prefix__cls-2" data-name="Rectangle 625"/>
                </g>
            </g>
        </g>
    </g>
</svg>
